{
    "TargetSystem": "SAP",
    "Type": "BOP",
    "FileName": "R1S",
    "ChangeNumber": "",
    "MCAOwner": "",
    "MCAObjectID": "",
    "MCAPushDate": "",
    "MCO": "",
    "MCR": "",
    "CAShop": "",
    "CADescription": "",
    "CAApplicability": "",
    "CAApplicabilityDate": "",
    "RelatedECA": "",
    "Model": "R1S",
    "Plant": "PL00005824",
    "PlantIdentifier": "",
    "Shops": [
        {
            "ShopOperationStatus": "Add",
            "ShopChildOrder": "546445749",
            "ShopName": "SH00006805",
            "ShopRevision": "01",
            "ShopTitle": "GA",
            "ShopIdentifier": "GA1",
            "ShopInstanceId": "27579C6C0000723C63F92C250010488D",
            "NextShopName": "Last",
            "Lines": [
                {
                    "LineOperationStatus": "Add",
                    "LineChildOrder": "546179656",
                    "LineName": "LN00011113",
                    "LineRevision": "01",
                    "LineTitle": "F1",
                    "LineIdentifier": "GA1FL1",
                    "LineInstanceId": "197085C60000882863F5009806EEC9B0",
                    "ParallelLine": "",
                    "IsLineStartPoint": "",
                    "NextLineName": "LN00011122",
                    "Stations": [
                        {
                            "StationOperationStatus": "Add",
                            "StationChildOrder": "549771465",
                            "StationName": "ST00023727",
                            "StationRevision": "01",
                            "StationTitle": "030",
                            "StationIdentifier": "GA1FL10301",
                            "StationInstanceId": "197085C60000882863F501C9072DB183",
                            "ParallelStation": "",
                            "IsStationStartPoint": "",
                            "NextStationName": "Last",
                            "WorkLocations": [
                                {
                                    "WorkLocationOperationStatus": "Add",
                                    "WorkLocationChildOrder": "442697164",
                                    "IsWorkLocationStartPoint": "",
                                    "WorkLocationName": "WL00031645",
                                    "WorkLocationRevision": "01",
                                    "WorkLocationTitle": "3F1030RR",
                                    "WorkLocationIdentifier": "RR",
                                    "WorkLocationInstanceId": "197085C60000882863F501E40732C8B6",
                                    "NextWorkLocationName": "Last",
                                    "WorkElements": [
                                        {
                                            "WorkElementOperationStatus": "Add",
                                            "WorkElementChildOrder": "154961638",
                                            "WorkElementName": "WE00122835",
                                            "WorkElementRevision": "01",
                                            "WorkElementDesc": "R1S: RH RR Underbody Battery SD Panel w/ x1 bolt",
                                            "WorkElementLongDescription": "",
                                            "WorkElementOperationType": "Torque Nonreporting",
                                            "IsWorkElementStartPoint": "",
                                            "WorkElementInstanceId": "2756171100004F0864D1A6210094D2E3",
                                            "WorkElementEffectivityEvolution": "",
                                            "WorkElementEffectivityStartDate": "02/09/2024",
                                            "WorkElementEffectivityEndDate": "12/31/9999",
                                            "WEEffectivityVariant": "R1S: VAR00000067{R1S},R1T: FALSE",
                                            "NextWorkElementName": "WE00116145",
                                            "PartList": [
                                                {
                                                    "PartOperationStatus": "Create",
                                                    "PartNo": "SC00018972-A",
                                                    "PartRevision": "02",
                                                    "PartName": "BOLT - M6X1.0X28 TE FL WSHR FL MAT NYL CL8.8 R105B",
                                                    "SAPResponse": "",
                                                    "PartInstanceId": "4100000100003FE8656A21A10095E8DD",
                                                    "PartInstanceName": "BOLT - M6X1.0X28 TE FL WSHR FL MAT NYL CL8.8 R105B.77",
                                                    "PartInstancePath": "PT00936897-A:27579C6C0000132063FFC6D904A15139:27579C6C0000132063FFC7BA04A740A7:4100000100003FE8656A21A10095E8DD",
                                                    "PartInstanceQuantity": "1",
                                                    "PartEffectivityEvolution": "",
                                                    "PartEffectivityStartDate": "02/09/2024",
                                                    "PartEffectivityEndDate": "12/31/9999",
                                                    "EffectivityVariant": "R1S: VAR00000247{PGRN01}",
                                                    "TorqueNominal": "0.00",
                                                    "TorqueTolerance": "0.00",
                                                    "UCL": "0.00",
                                                    "LCL": "0.00",
                                                    "TorqueAngle": "-17.44",
                                                    "TorqueAngleTolerance": "0.00",
                                                    "DesignCriticality": "",
                                                    "ColorCode": ""
                                                },
                                                {
                                                    "PartOperationStatus": "Create",
                                                    "PartNo": "PT00742037-A",
                                                    "PartRevision": "02",
                                                    "PartName": "ASSY - SIDE ROCKER PANEL RR - UNDERBODY; RH R1S C&L-PGN",
                                                    "SAPResponse": "",
                                                    "PartInstanceId": "1927092D00002D2C64C433DE007DEFBB",
                                                    "PartInstanceName": "ASSY - SIDE ROCKER PANEL RR - UNDERBODY; RH R1S C&L-PGN.NotProvidedFromRepository",
                                                    "PartInstancePath": "PT00936897-A:27579C6C0000132063FFC6D904A15139:27579C6C0000132063FFC7BA04A740A7:1927092D00002D2C64C433DE007DEFBB",
                                                    "PartInstanceQuantity": "1",
                                                    "PartEffectivityEvolution": "",
                                                    "PartEffectivityStartDate": "02/09/2024",
                                                    "PartEffectivityEndDate": "12/31/9999",
                                                    "EffectivityVariant": "R1S: VAR00000247{PGRN01}",
                                                    "TorqueNominal": "0.00",
                                                    "TorqueTolerance": "0.00",
                                                    "UCL": "0.00",
                                                    "LCL": "0.00",
                                                    "TorqueAngle": "0.00",
                                                    "TorqueAngleTolerance": "0.00",
                                                    "DesignCriticality": "NC - Non Significant Characteristic",
                                                    "ColorCode": ""
                                                },
                                                {
                                                    "PartOperationStatus": "Create",
                                                    "PartNo": "PT00742037-A",
                                                    "PartRevision": "02",
                                                    "PartName": "ASSY - SIDE ROCKER PANEL RR - UNDERBODY; RH R1S C&L-PGN",
                                                    "SAPResponse": "",
                                                    "PartInstanceId": "4100000100003FE8656A21A00095E2E8",
                                                    "PartInstanceName": "ASSY - SIDE ROCKER PANEL RR - UNDERBODY; RH R1S C&L-PGN.NotProvidedFromRepository",
                                                    "PartInstancePath": "PT00936897-A:27579C6C0000132063FFC6D904A15139:27579C6C0000132063FFC7BA04A740A7:4100000100003FE8656A21A00095E2E8",
                                                    "PartInstanceQuantity": "1",
                                                    "PartEffectivityEvolution": "",
                                                    "PartEffectivityStartDate": "02/09/2024",
                                                    "PartEffectivityEndDate": "12/31/9999",
                                                    "EffectivityVariant": "",
                                                    "TorqueNominal": "0.00",
                                                    "TorqueTolerance": "0.00",
                                                    "UCL": "0.00",
                                                    "LCL": "0.00",
                                                    "TorqueAngle": "0.00",
                                                    "TorqueAngleTolerance": "0.00",
                                                    "DesignCriticality": "NC - Non Significant Characteristic",
                                                    "ColorCode": ""
                                                },
                                                {
                                                    "PartOperationStatus": "Create",
                                                    "PartNo": "SC00018972-A",
                                                    "PartRevision": "03",
                                                    "PartName": "BOLT - M6X1.0X28 TE FL WSHR FL MAT NYL CL8.8 R105B",
                                                    "SAPResponse": "",
                                                    "PartInstanceId": "27579C6C00003EE8651E01930128F04B",
                                                    "PartInstanceName": "BOLT - M6X1.0X28 TE FL WSHR FL MAT NYL CL8.8 R105B.404",
                                                    "PartInstancePath": "PT00936897-A:27579C6C0000132063FFC6D904A15139:27579C6C0000132063FFC7BA04A740A7:27579C6C00003EE8651E01930128F04B",
                                                    "PartInstanceQuantity": "1",
                                                    "PartEffectivityEvolution": "",
                                                    "PartEffectivityStartDate": "02/09/2024",
                                                    "PartEffectivityEndDate": "12/31/9999",
                                                    "EffectivityVariant": "R1S: VAR00000247{PGRN01}",
                                                    "TorqueNominal": "0.00",
                                                    "TorqueTolerance": "0.00",
                                                    "UCL": "0.00",
                                                    "LCL": "0.00",
                                                    "TorqueAngle": "-17.44",
                                                    "TorqueAngleTolerance": "0.00",
                                                    "DesignCriticality": "",
                                                    "ColorCode": ""
                                                }
                                            ]
                                        },
                                        {
                                            "WorkElementOperationStatus": "Add",
                                            "WorkElementChildOrder": "51653879",
                                            "WorkElementName": "WE00111939",
                                            "WorkElementRevision": "01",
                                            "WorkElementDesc": "R1: RH Side Underbody Battery Panel SD",
                                            "WorkElementLongDescription": "",
                                            "WorkElementOperationType": "",
                                            "IsWorkElementStartPoint": "",
                                            "WorkElementInstanceId": "435C39DA0000948C6511F32C01104D54",
                                            "WorkElementEffectivityEvolution": "",
                                            "WorkElementEffectivityStartDate": "02/09/2024",
                                            "WorkElementEffectivityEndDate": "12/31/9999",
                                            "WEEffectivityVariant": "",
                                            "NextWorkElementName": "WE00122835",
                                            "PartList": [
                                                {
                                                    "PartOperationStatus": "Create",
                                                    "PartNo": "PT00742033-A",
                                                    "PartRevision": "03",
                                                    "PartName": "ASSY SIDE ROCKER PANEL CENTER - UNDERBODY; RH R1 COMMON",
                                                    "SAPResponse": "",
                                                    "PartInstanceId": "1927092D00002D2C64C433B5007DC8BC",
                                                    "PartInstanceName": "ASSY SIDE ROCKER PANEL CENTER - UNDERBODY; RH R1 COMMON.NotProvidedFromRepository",
                                                    "PartInstancePath": "PT00936897-A:27579C6C0000132063FFC6D904A15139:27579C6C0000132063FFC7AC04A721A0:1927092D00002D2C64C433B5007DC8BC",
                                                    "PartInstanceQuantity": "1",
                                                    "PartEffectivityEvolution": "",
                                                    "PartEffectivityStartDate": "02/09/2024",
                                                    "PartEffectivityEndDate": "12/31/9999",
                                                    "EffectivityVariant": "",
                                                    "TorqueNominal": "0.00",
                                                    "TorqueTolerance": "0.00",
                                                    "UCL": "0.00",
                                                    "LCL": "0.00",
                                                    "TorqueAngle": "0.00",
                                                    "TorqueAngleTolerance": "0.00",
                                                    "DesignCriticality": "",
                                                    "ColorCode": ""
                                                }
                                            ]
                                        },
                                        {
                                            "WorkElementOperationStatus": "Add",
                                            "WorkElementChildOrder": "206615517",
                                            "WorkElementName": "WE00116145",
                                            "WorkElementRevision": "01",
                                            "WorkElementDesc": "R1(O): RR Underbody Subframe Panel-off road",
                                            "WorkElementLongDescription": "",
                                            "WorkElementOperationType": "Error Proofing",
                                            "IsWorkElementStartPoint": "",
                                            "WorkElementInstanceId": "28F771FC000005146461E678007AC9D3",
                                            "WorkElementEffectivityEvolution": "",
                                            "WorkElementEffectivityStartDate": "02/09/2024",
                                            "WorkElementEffectivityEndDate": "12/31/9999",
                                            "WEEffectivityVariant": "R1S: VAR00000012{UB_01},R1T: VAR00000012{UB_01}",
                                            "NextWorkElementName": "WE00126993",
                                            "PartList": [
                                                {
                                                    "PartOperationStatus": "Create",
                                                    "PartNo": "PT00935216-A",
                                                    "PartRevision": "01",
                                                    "PartName": "R1S-GEN2_PANEL_UBSFP-OFFROAD - 2130.3a-Proto",
                                                    "SAPResponse": "",
                                                    "PartInstanceId": "04153D9300006ABC659C7E8300C151B5",
                                                    "PartInstanceName": "R1S-GEN2_PANEL_UBSFP-OFFROAD - 2130.3a-Proto.11",
                                                    "PartInstancePath": "PT00936897-A:27579C6C0000132063FFC6D904A15139:27579C6C0000132063FFC6F104A29231:04153D9300006ABC659C7E8300C151B5",
                                                    "PartInstanceQuantity": "1",
                                                    "PartEffectivityEvolution": "",
                                                    "PartEffectivityStartDate": "02/09/2024",
                                                    "PartEffectivityEndDate": "12/31/9999",
                                                    "EffectivityVariant": "R1S: VAR00000006{BT_02} AND VAR00000012{UB_01} AND VAR00000247{PGRN01}",
                                                    "TorqueNominal": "0.00",
                                                    "TorqueTolerance": "0.00",
                                                    "UCL": "0.00",
                                                    "LCL": "0.00",
                                                    "TorqueAngle": "0.00",
                                                    "TorqueAngleTolerance": "0.00",
                                                    "DesignCriticality": "",
                                                    "ColorCode": ""
                                                },
                                                {
                                                    "PartOperationStatus": "Create",
                                                    "PartNo": "PT01000256-A",
                                                    "PartRevision": "04",
                                                    "PartName": "ASSY, RR SUBFRAME UNDERBODY PANEL - OFFROAD 1130.3a",
                                                    "SAPResponse": "",
                                                    "PartInstanceId": "04153D9300006ABC659C7E3000C12053",
                                                    "PartInstanceName": "ASSY, RR SUBFRAME UNDERBODY PANEL - OFFROAD 1130.3a.NotProvidedFromRepository",
                                                    "PartInstancePath": "PT00936897-A:27579C6C0000132063FFC6D904A15139:27579C6C0000132063FFC6F104A29231:04153D9300006ABC659C7E3000C12053",
                                                    "PartInstanceQuantity": "1",
                                                    "PartEffectivityEvolution": "",
                                                    "PartEffectivityStartDate": "02/09/2024",
                                                    "PartEffectivityEndDate": "12/31/9999",
                                                    "EffectivityVariant": "R1S: VAR00000006{BT_02} AND VAR00000012{UB_01}",
                                                    "TorqueNominal": "0.00",
                                                    "TorqueTolerance": "0.00",
                                                    "UCL": "0.00",
                                                    "LCL": "0.00",
                                                    "TorqueAngle": "0.00",
                                                    "TorqueAngleTolerance": "0.00",
                                                    "DesignCriticality": "",
                                                    "ColorCode": ""
                                                }
                                            ]
                                        },
                                        {
                                            "WorkElementOperationStatus": "Add",
                                            "WorkElementChildOrder": "308977234",
                                            "WorkElementName": "WE00126994",
                                            "WorkElementRevision": "01",
                                            "WorkElementDesc": "R1(O): LFP- RR Underbody Subframe Panel",
                                            "WorkElementLongDescription": "",
                                            "WorkElementOperationType": "Error Proofing",
                                            "IsWorkElementStartPoint": "",
                                            "WorkElementInstanceId": "435C39DA0000948C65124F1D011118B0",
                                            "WorkElementEffectivityEvolution": "",
                                            "WorkElementEffectivityStartDate": "02/09/2024",
                                            "WorkElementEffectivityEndDate": "12/31/9999",
                                            "WEEffectivityVariant": "R1S: VAR00000006{BT_04},R1T: VAR00000006{BT_04}",
                                            "NextWorkElementName": "WE00126992",
                                            "PartList": [
                                                {
                                                    "PartOperationStatus": "Create",
                                                    "PartNo": "PT00994198-A",
                                                    "PartRevision": "04",
                                                    "PartName": "ASSY, RR SUBFRAME UNDERBODY PANEL - ONROAD 1030.3c",
                                                    "SAPResponse": "",
                                                    "PartInstanceId": "04153D9300006ABC659C7DE600C0AABB",
                                                    "PartInstanceName": "ASSY, RR SUBFRAME UNDERBODY PANEL - ONROAD 1030.3c.NotProvidedFromRepository",
                                                    "PartInstancePath": "PT00936897-A:27579C6C0000132063FFC6D904A15139:27579C6C0000132063FFC6F104A29231:04153D9300006ABC659C7DE600C0AABB",
                                                    "PartInstanceQuantity": "1",
                                                    "PartEffectivityEvolution": "",
                                                    "PartEffectivityStartDate": "02/09/2024",
                                                    "PartEffectivityEndDate": "12/31/9999",
                                                    "EffectivityVariant": "R1S: VAR00000006{BT_04}",
                                                    "TorqueNominal": "0.00",
                                                    "TorqueTolerance": "0.00",
                                                    "UCL": "0.00",
                                                    "LCL": "0.00",
                                                    "TorqueAngle": "0.00",
                                                    "TorqueAngleTolerance": "0.00",
                                                    "DesignCriticality": "NC - Non Significant Characteristic",
                                                    "ColorCode": ""
                                                },
                                                {
                                                    "PartOperationStatus": "Create",
                                                    "PartNo": "PT01153095-A",
                                                    "PartRevision": "01",
                                                    "PartName": "ASSY, RR SUBFRAME UNDERBODY PANEL - ONROAD 1030.3C - PROTO",
                                                    "SAPResponse": "",
                                                    "PartInstanceId": "04153D9300006ABC659C7D8200C074EA",
                                                    "PartInstanceName": "ASSY, RR SUBFRAME UNDERBODY PANEL - ONROAD 1030.3C - PROTO.NotProvidedFromRepository",
                                                    "PartInstancePath": "PT00936897-A:27579C6C0000132063FFC6D904A15139:27579C6C0000132063FFC6F104A29231:04153D9300006ABC659C7D8200C074EA",
                                                    "PartInstanceQuantity": "1",
                                                    "PartEffectivityEvolution": "",
                                                    "PartEffectivityStartDate": "02/09/2024",
                                                    "PartEffectivityEndDate": "12/31/9999",
                                                    "EffectivityVariant": "R1S: VAR00000006{BT_04} AND VAR00000012{UB_02} AND VAR00000247{PGRN01}",
                                                    "TorqueNominal": "0.00",
                                                    "TorqueTolerance": "0.00",
                                                    "UCL": "0.00",
                                                    "LCL": "0.00",
                                                    "TorqueAngle": "0.00",
                                                    "TorqueAngleTolerance": "0.00",
                                                    "DesignCriticality": "NC - Non Significant Characteristic",
                                                    "ColorCode": ""
                                                }
                                            ]
                                        },
                                        {
                                            "WorkElementOperationStatus": "Add",
                                            "WorkElementChildOrder": "257796375",
                                            "WorkElementName": "WE00126993",
                                            "WorkElementRevision": "01",
                                            "WorkElementDesc": "R1(O): RR Underbody Subframe Panel-on road",
                                            "WorkElementLongDescription": "",
                                            "WorkElementOperationType": "Error Proofing",
                                            "IsWorkElementStartPoint": "",
                                            "WorkElementInstanceId": "435C39DA0000948C65124F1D011118AC",
                                            "WorkElementEffectivityEvolution": "",
                                            "WorkElementEffectivityStartDate": "02/09/2024",
                                            "WorkElementEffectivityEndDate": "12/31/9999",
                                            "WEEffectivityVariant": "R1S: VAR00000012{UB_02},R1T: VAR00000012{UB_02}",
                                            "NextWorkElementName": "WE00126994",
                                            "PartList": [
                                                {
                                                    "PartOperationStatus": "Create",
                                                    "PartNo": "PT01000255-A",
                                                    "PartRevision": "04",
                                                    "PartName": "ASSY, RR SUBFRAME UNDERBODY PANEL - ONROAD 1030.3a",
                                                    "SAPResponse": "",
                                                    "PartInstanceId": "04153D9300006ABC659C7DF600C0C7DF",
                                                    "PartInstanceName": "ASSY, RR SUBFRAME UNDERBODY PANEL - ONROAD 1030.3a.NotProvidedFromRepository",
                                                    "PartInstancePath": "PT00936897-A:27579C6C0000132063FFC6D904A15139:27579C6C0000132063FFC6F104A29231:04153D9300006ABC659C7DF600C0C7DF",
                                                    "PartInstanceQuantity": "1",
                                                    "PartEffectivityEvolution": "",
                                                    "PartEffectivityStartDate": "02/09/2024",
                                                    "PartEffectivityEndDate": "12/31/9999",
                                                    "EffectivityVariant": "R1S: VAR00000006{BT_02} AND VAR00000012{UB_02}",
                                                    "TorqueNominal": "0.00",
                                                    "TorqueTolerance": "0.00",
                                                    "UCL": "0.00",
                                                    "LCL": "0.00",
                                                    "TorqueAngle": "0.00",
                                                    "TorqueAngleTolerance": "0.00",
                                                    "DesignCriticality": "",
                                                    "ColorCode": ""
                                                },
                                                {
                                                    "PartOperationStatus": "Create",
                                                    "PartNo": "PT00935214-B",
                                                    "PartRevision": "02",
                                                    "PartName": "ASSY, RR SUBFRAME UNDERBODY PANEL - ONROAD 1030.3a-PROTO",
                                                    "SAPResponse": "",
                                                    "PartInstanceId": "04153D9300006ABC659C7DEE00C0B983",
                                                    "PartInstanceName": "ASSY, RR SUBFRAME UNDERBODY PANEL - ONROAD 1030.3a-PROTO.NotProvidedFromRepository",
                                                    "PartInstancePath": "PT00936897-A:27579C6C0000132063FFC6D904A15139:27579C6C0000132063FFC6F104A29231:04153D9300006ABC659C7DEE00C0B983",
                                                    "PartInstanceQuantity": "1",
                                                    "PartEffectivityEvolution": "",
                                                    "PartEffectivityStartDate": "02/09/2024",
                                                    "PartEffectivityEndDate": "12/31/9999",
                                                    "EffectivityVariant": "R1S: VAR00000006{BT_02} AND VAR00000012{UB_02} AND VAR00000247{PGRN01}",
                                                    "TorqueNominal": "0.00",
                                                    "TorqueTolerance": "0.00",
                                                    "UCL": "0.00",
                                                    "LCL": "0.00",
                                                    "TorqueAngle": "0.00",
                                                    "TorqueAngleTolerance": "0.00",
                                                    "DesignCriticality": "",
                                                    "ColorCode": ""
                                                }
                                            ]
                                        }                                           
                                        
                                    ]
                                }
                            ]
                        }
                    ]
                }
            ]
        }
    ]
}